Array Length, Execution Times (ms) Algorithm 1,  Execution Times (ms) Algorithm 2
0,0,0
50,0,0
100,1,0
150,2,0
200,2,1
250,3,2
300,4,2
350,7,4
400,9,4
450,10,6
500,12,7
550,17,10
600,21,11
650,33,18
700,24,13
750,28,15
800,33,18
850,37,19
900,40,21
950,45,24
1000,51,27
1050,55,29
1100,60,33
1150,67,35
1200,72,40
1250,81,42
1300,85,46
1350,90,49
1400,97,52
1450,104,56
1500,113,59
1550,120,65
1600,128,67
1650,134,73
1700,143,78
1750,151,81
1800,161,86
1850,169,92
1900,179,95
1950,189,99
2000,199,107
2050,209,110
2100,219,117
2150,231,123
2200,240,128
2250,250,133
2300,264,139
2350,273,146
2400,288,151
2450,297,159
2500,309,166
2550,320,174
2600,335,177
2650,348,185
2700,362,193
2750,375,198
2800,389,206
2850,402,215
2900,415,222
2950,434,229
3000,446,237
3050,459,245
3100,474,253
3150,489,261
3200,507,270
3250,521,276
3300,538,286
3350,556,297
3400,577,305
3450,589,319
3500,604,321
3550,622,332
3600,642,341
3650,657,351
3700,676,361
3750,696,369
3800,713,379
3850,733,390
3900,751,400
3950,772,410
4000,790,420
4050,808,432
4100,830,448
4150,966,457
4200,891,470
4250,893,487
4300,995,532
4350,938,497
4400,958,507
4450,979,523
4500,1001,530
4550,1024,543
4600,1044,556
4650,1068,567
4700,1102,582
4750,1114,593
4800,1139,603
4850,1164,623
4900,1187,632
4950,1211,643
5000,1233,657
5050,1260,671
5100,1285,682
5150,1311,700
5200,1335,718
5250,1363,723
5300,1390,740
5350,1440,841
5400,1621,857
5450,1596,890
5500,1550,800
5550,1570,814
5600,1658,850
5650,1747,845
5700,1808,941
5750,1680,904
5800,1702,892
5850,1712,929
5900,1825,913
5950,1810,940
6000,2311,1051
6050,1942,1067
6100,2086,1100
6150,1984,1002
6200,1994,1131
6250,2152,1129
6300,2060,1049
6350,2003,1065
6400,2026,1079
6450,2056,1094
6500,2090,1109
6550,2120,1124
6600,2151,1144
6650,2185,1158
6700,2221,1179
6750,2251,1198
6800,2284,1213
6850,2321,1232
6900,2356,1250
6950,2384,1266
7000,2478,1380
7050,2556,1302
7100,2489,1324
7150,2525,1343
7200,2564,1358
7250,2598,1376
7300,2637,1398
7350,2671,1419
7400,2705,1436
7450,2739,1457
7500,2786,1480
7550,2823,1494
7600,2857,1522
7650,2893,1535
7700,2929,1558
7750,2970,1576
7800,3009,1595
7850,3048,1622
7900,3083,1639
7950,3125,1660
8000,3164,1678
8050,3202,1701
8100,3243,1721
8150,3285,1743
8200,3324,1762
8250,3368,1787
8300,3416,1808
8350,3457,1830
8400,3500,1853
8450,3549,1876
8500,3590,1897
8550,3796,1922
8600,3685,1943
8650,3729,1962
8700,3777,1989
8750,3822,2011
8800,3868,2036
8850,3915,2056
8900,3960,2082
8950,4007,2110
9000,4052,2137
9050,4099,2156
9100,4159,2179
9150,4190,2205
9200,4229,2232
9250,4271,2253
9300,4355,2278
9350,4409,2303
9400,4422,2328
9450,4461,2352
9500,4517,2391
9550,4561,2406
9600,4609,2432
9650,4661,2455
9700,4703,2481
9750,4755,2514
9800,4806,2538
9850,4860,2565
9900,4907,2587
9950,4958,2614
10000,5005,2637
10050,5059,2670
10100,5106,2693
10150,5152,2721
10200,5243,2752
10250,5256,2778
10300,5305,2807
10350,5357,2835
10400,5414,2861
10450,5459,2889
10500,5508,2918
10550,5568,2948
10600,5616,2975
10650,5669,3003
10700,5727,3031
10750,5773,3066
10800,5833,3090
10850,5967,3116
10900,5943,3145
10950,5998,3181
11000,6048,3208
11050,6107,3235
11100,6159,3269
11150,6213,3296
11200,6273,3328
11250,6324,3362
11300,6386,3391
11350,6448,3421
11400,6506,3452
11450,6552,3485
11500,6618,3510
11550,6675,3547
11600,6727,3583
11650,6792,3599
11700,6862,3645
11750,6902,3663
11800,6958,3697
11850,7022,3732
11900,7087,3760
11950,7141,3797
12000,7199,3826
12050,7265,3857
12100,7314,3890
12150,7375,3926
12200,7442,3957
12250,7501,3990
12300,7569,4026
12350,7630,4058
12400,7690,4091
12450,7748,4125
12500,7803,4157
12550,7906,4197
12600,7934,4224
12650,8004,4259
12700,8061,4298
12750,8128,4326
12800,8187,4362
12850,8250,4393
12900,8315,4432
12950,8392,4467
13000,8459,4502
13050,8513,4538
13100,8585,4572
13150,8641,4683
13200,8811,4679
13250,8775,4680
13300,8846,4717
13350,8917,4749
13400,8978,4787
13450,9045,4823
13500,9122,4862
13550,9183,4958
13600,9242,4933
13650,9313,4972
13700,9377,5008
13750,9455,5043
13800,9520,5081
13850,9621,5118
13900,9662,5155
13950,10032,5216
14000,9808,5236
14050,9871,5267
14100,9942,5303
14150,10040,5358
14200,10082,5392
14250,10156,5421
14300,10214,5464
14350,10326,5746
14400,10388,5539
14450,10443,5636
14500,10539,5619
14550,10613,5693
14600,10673,5700
14650,10732,5770
14700,10809,5778
14750,10878,5836
14800,10954,5842
14850,11030,5890
14900,11103,5929
14950,11183,5984
15000,11256,6005
15050,11320,6052
15100,11402,6194
15150,11506,6168
15200,11574,6177
15250,11632,6226
15300,11688,6260
15350,11800,6306
15400,11860,6339
15450,11932,6378
15500,12012,6427
15550,12120,6471
15600,12366,6519
15650,12254,6553
15700,12390,6632
15750,12412,6641
15800,12479,6676
15850,12559,6767
15900,12680,6765
15950,12723,6813
16000,12804,6847
16050,12886,6888
16100,12952,6931
16150,13041,6974
16200,13115,7028
16250,13209,7123
16300,13867,7765
16350,14371,7819
16400,14190,8006
16450,14850,8017
16500,15088,7449
16550,14261,7461
16600,13776,7380
16650,13855,7419
16700,13943,7471
16750,14032,7518
16800,14115,7562
16850,14914,7613
16900,14286,7651
16950,14364,7698
17000,14446,7744
17050,14608,7792
17100,15593,7849
17150,14717,7872
17200,14965,7932
17250,14876,7957
17300,14974,8012
17350,15041,8055
17400,15136,8115
17450,15258,8164
17500,15304,8204
17550,15395,8253
17600,15487,8304
17650,16510,8365
17700,15686,8391
17750,15746,8449
17800,15837,8485
17850,15930,8536
17900,16181,8586
17950,16113,8642
18000,16188,8686
18050,16297,8730
18100,16385,8787
18150,16463,8829
18200,16567,8882
18250,16650,8927
18300,16738,8974
18350,16836,9101
18400,16924,9066
18450,17069,9116
18500,17274,9173
18550,17191,9213
18600,17291,9276
18650,17384,9328
18700,17529,9378
18750,17595,9430
18800,17698,9478
18850,17755,9518
18900,17852,9577
18950,17969,9632
19000,18047,9679
19050,18136,9731
19100,18247,9780
19150,18337,9827
19200,18426,9891
19250,18523,9932
19300,18637,9993
19350,18716,10048
19400,18793,10092
19450,18916,10149
19500,19030,10317
19550,19230,10263
19600,19210,10308
19650,19307,10355
19700,19410,10475
19750,19486,10468
19800,19605,10524
19850,19740,10578
19900,19817,10629
19950,19895,10679
20000,19996,10734
20050,20084,10785
20100,20183,10844
20150,20304,10900
20200,20409,10955
20250,20548,11005
20300,20599,11052
20350,20695,11108
20400,20796,11170
20450,20921,11228
20500,21013,11287
20550,21124,11323
20600,21222,11385
20650,21323,11444
20700,21437,11523
20750,21516,11557
20800,21665,11623
20850,21735,11658
20900,21836,11721
20950,21940,11783
21000,22055,11839
21050,22142,11885
21100,22259,11976
21150,22379,12009
21200,22468,12070
21250,22578,12114
21300,22673,12180
21350,23090,12228
21400,22889,12346
21450,23010,12350
21500,23134,12447
21550,23232,12544
21600,23558,12576
21650,23461,12640
21700,23562,12667
21750,23644,12700
21800,23787,12765
21850,23884,12811
21900,24002,12882
21950,24100,12949
22000,24266,13001
22050,24316,13081
22100,24432,13115
22150,24547,13216
22200,24651,13239
22250,24856,13299
22300,24853,13361
22350,24981,13427
22400,25081,13477
22450,25179,13594
22500,25308,13596
22550,25424,13660
22600,25581,13727
22650,25654,13773
22700,25786,13835
22750,25887,13973
22800,26001,13960
22850,26105,14025
22900,26231,14092
22950,26355,14148
23000,26437,14212
23050,26571,14261
23100,26720,14323
23150,26787,14395
23200,26897,14496
23250,27033,14528
23300,27146,14588
23350,27277,14662
23400,27373,14710
23450,27487,14785
23500,27604,14841
23550,27758,14902
23600,27845,14971
23650,27974,15047
23700,28096,15103
23750,28212,15164
23800,28503,15228
23850,28497,15282
23900,28574,15401
23950,29174,15526
24000,28992,15593
24050,29123,15648
24100,29256,15707
24150,29505,16724
24200,30938,16117
24250,29426,15822
24300,29666,15896
24350,29707,15975
24400,29788,16012
24450,29925,16300
24500,30022,16193
24550,30171,16202
24600,30320,16273
24650,30392,16347
24700,30528,16409
24750,30643,16478
24800,30741,16645
24850,30887,16637
24900,31025,16660
24950,31129,16734
