Array Length, Basic Operation Count Algorithm 1, Basic Operation Count Algorithm 2
0,0,0
50,2365,1189
100,9710,4859
150,22057,11031
200,39413,19712
250,61758,30882
300,89113,44562
350,121459,60733
400,158812,79411
450,201158,100582
500,248514,124263
550,300860,150434
600,358205,179104
650,420562,210286
700,487909,243958
750,560260,280134
800,637608,318807
850,719964,359988
900,807309,403658
950,899663,449837
1000,997007,498506
1050,1099359,549683
1100,1206711,603360
1150,1319060,659534
1200,1436412,718211
1250,1558757,779381
1300,1686111,843060
1350,1818460,909234
1400,1955811,977910
1450,2098160,1049084
1500,2245510,1122759
1550,2397859,1198933
1600,2555210,1277609
1650,2717559,1358783
1700,2884910,1442459
1750,3057261,1528635
1800,3234608,1617307
1850,3416963,1708487
1900,3604316,1802165
1950,3796659,1898333
2000,3994007,1997006
2050,4196367,2098191
2100,4403711,2201860
2150,4616064,2308038
2200,4833414,2416713
2250,5055758,2527882
2300,5283113,2641562
2350,5515463,2757737
2400,5752812,2876411
2450,5995156,2997580
2500,6242508,3121257
2550,6494862,3247436
2600,6752213,3376112
2650,7014558,3507282
2700,7281907,3640956
2750,7554262,3777136
2800,7831615,3915814
2850,8113961,4056985
2900,8401310,4200659
2950,8693671,4346845
3000,8991010,4495509
3050,9293362,4646686
3100,9600707,4800356
3150,9913060,4956534
3200,10230410,5115209
3250,10552762,5276386
3300,10880117,5440066
3350,11212460,5606234
3400,11549809,5774908
3450,11892161,5946085
3500,12239513,6119762
3550,12591859,6295933
3600,12949209,6474608
3650,13311561,6655785
3700,13678910,6839459
3750,14051264,7025638
3800,14428612,7214311
3850,14810964,7405488
3900,15198309,7599158
3950,15590662,7795336
4000,15988016,7994015
4050,16390360,8195184
4100,16797711,8398860
4150,17210061,8605035
4200,17627411,8813710
4250,18049762,9024886
4300,18477111,9238560
4350,18909461,9454735
4400,19346813,9673412
4450,19789157,9894581
4500,20236516,10118265
4550,20688860,10344434
4600,21146216,10573115
4650,21608560,10804284
4700,22075908,11037957
4750,22548261,11274135
4800,23025611,11512810
4850,23507969,11753993
4900,23995310,11997659
4950,24487661,12243835
5000,24985009,12492508
5050,25487360,12743684
5100,25994712,12997361
5150,26507064,13253538
5200,27024411,13512210
5250,27546760,13773384
5300,28074108,14037057
5350,28606457,14303231
5400,29143808,14571907
5450,29686155,14843079
5500,30233509,15116758
5550,30785859,15392933
5600,31343212,15671611
5650,31905557,15952781
5700,32472909,16236458
5750,33045259,16522633
5800,33622612,16811311
5850,34204959,17102483
5900,34792312,17396161
5950,35384661,17692335
6000,35982011,17991010
6050,36584361,18292185
6100,37191706,18595855
6150,37804064,18902038
6200,38421410,19210709
6250,39043756,19521880
6300,39671110,19835559
6350,40303465,20151739
6400,40940806,20470405
6450,41583162,20791586
6500,42230512,21115261
6550,42882858,21441432
6600,43540211,21770110
6650,44202560,22101284
6700,44869910,22434959
6750,45542269,22771143
6800,46219611,23109810
6850,46901961,23450985
6900,47589307,23794656
6950,48281664,24140838
7000,48979013,24489512
7050,49681357,24840681
7100,50388708,25194357
7150,51101062,25550536
7200,51818410,25909209
7250,52540761,26270385
7300,53268112,26634061
7350,54000461,27000235
7400,54737807,27368906
7450,55480158,27740082
7500,56227506,28113755
7550,56979861,28489935
7600,57737209,28868608
7650,58499566,29249790
7700,59266911,29633460
7750,60039259,30019633
7800,60816612,30408311
7850,61598960,30799484
7900,62386308,31193157
7950,63178661,31589335
8000,63976009,31988008
8050,64778362,32389186
8100,65585712,32792861
8150,66398063,33199037
8200,67215410,33607709
8250,68037759,34018883
8300,68865112,34432561
8350,69697464,34848738
8400,70534811,35267410
8450,71377155,35688579
8500,72224511,36112260
8550,73076858,36538432
8600,73934208,36967107
8650,74796567,37398291
8700,75663918,37831967
8750,76536257,38268131
8800,77413606,38706805
8850,78295963,39147987
8900,79183312,39591661
8950,80075661,40037835
9000,80973010,40486509
9050,81875360,40937684
9100,82782719,41391368
9150,83695056,41847530
9200,84612408,42306207
9250,85534766,42767390
9300,86462107,43231056
9350,87394456,43697230
9400,88331813,44165912
9450,89274162,44637086
9500,90221510,45110759
9550,91173861,45586935
9600,92131210,46065609
9650,93093566,46546790
9700,94060907,47030456
9750,95033263,47516637
9800,96010609,48005308
9850,96992964,48496488
9900,97980314,48990163
9950,98972669,49486343
10000,99970011,49985010
10050,100972364,50486188
10100,101979711,50989860
10150,102992068,51496042
10200,104009414,52004713
10250,105031759,52515883
10300,106059108,53029557
10350,107091460,53545734
10400,108128809,54064408
10450,109171158,54585582
10500,110218515,55109264
10550,111270864,55635438
10600,112328216,56164115
10650,113390564,56695288
10700,114457908,57228957
10750,115530266,57765140
10800,116607609,58303808
10850,117689961,58844985
10900,118777312,59388661
10950,119869661,59934835
11000,120967009,60483508
11050,122069356,61034680
11100,123176704,61588353
11150,124289062,62144536
11200,125406408,62703207
11250,126528761,63264385
11300,127656114,63828063
11350,128788465,64394239
11400,129925811,64962910
11450,131068158,65534082
11500,132215514,66107763
11550,133367862,66683936
11600,134525211,67262610
11650,135687561,67843785
11700,136854908,68427457
11750,138027261,69013635
11800,139204615,69602314
11850,140386956,70193480
11900,141574307,70787156
11950,142766664,71383338
12000,143964008,71982007
12050,145166359,72583183
12100,146373716,73186865
12150,147586065,73793039
12200,148803408,74401707
12250,150025760,75012884
12300,151253113,75626562
12350,152485458,76242732
12400,153722813,76861412
12450,154965163,77482587
12500,156212507,78106256
12550,157464858,78732432
12600,158722210,79361109
12650,159984558,79992282
12700,161251910,80625959
12750,162524259,81262133
12800,163801608,81900807
12850,165083958,82541982
12900,166371317,83185666
12950,167663662,83831836
13000,168961010,84480509
13050,170263359,85131683
13100,171570712,85785361
13150,172883063,86441537
13200,174200408,87100207
13250,175522763,87761387
13300,176850108,88425057
13350,178182463,89091237
13400,179519808,89759907
13450,180862161,90431085
13500,182209512,91104761
13550,183561863,91780937
13600,184919211,92459610
13650,186281561,93140785
13700,187648911,93824460
13750,189021264,94510638
13800,190398608,95199307
13850,191780961,95890485
13900,193168311,96584160
13950,194560666,97280340
14000,195958008,97979007
14050,197360361,98680185
14100,198767710,99383859
14150,200180058,100090032
14200,201597412,100798711
14250,203019757,101509881
14300,204447111,102223560
14350,205879464,102939738
14400,207316816,103658415
14450,208759161,104379585
14500,210206512,105103261
14550,211658864,105829438
14600,213116210,106558109
14650,214578561,107289285
14700,216045907,108022956
14750,217518266,108759140
14800,218995607,109497806
14850,220477962,110238986
14900,221965307,110982656
14950,223457662,111728836
15000,224955013,112477512
15050,226457360,113228684
15100,227964713,113982362
15150,229477062,114738536
15200,230994414,115497213
15250,232516765,116258389
15300,234044110,117022059
15350,235576458,117788232
15400,237113808,118556907
15450,238656165,119328089
15500,240203512,120101761
15550,241755861,120877935
15600,243313211,121656610
15650,244875559,122437783
15700,246442918,123221467
15750,248015259,124007633
15800,249592609,124796308
15850,251174961,125587485
15900,252762309,126381158
15950,254354658,127177332
16000,255952015,127976014
16050,257554363,128777187
16100,259161710,129580859
16150,260774055,130387029
16200,262391411,131195710
16250,264013762,132006886
16300,265641107,132820556
16350,267273459,133636733
16400,268910813,134455412
16450,270553159,135276583
16500,272200510,136100259
16550,273852860,136926434
16600,275510212,137755111
16650,277172561,138586285
16700,278839910,139419959
16750,280512261,140256135
16800,282189613,141094812
16850,283871956,141935980
16900,285559310,142779659
16950,287251658,143625832
17000,288949013,144474512
17050,290651366,145325690
17100,292358710,146179359
17150,294071061,147035535
17200,295788412,147894211
17250,297510760,148755384
17300,299238114,149619063
17350,300970459,150485233
17400,302707808,151353907
17450,304450164,152225088
17500,306197509,153098758
17550,307949860,153974934
17600,309707209,154853608
17650,311469561,155734785
17700,313236909,156618458
17750,315009260,157504634
17800,316786610,158393309
17850,318568962,159284486
17900,320356312,160178161
17950,322148663,161074337
18000,323946014,161973013
18050,325748356,162874180
18100,327555710,163777859
18150,329368060,164684034
18200,331185406,165592705
18250,333007761,166503885
18300,334835107,167417556
18350,336667462,168333736
18400,338504810,169252409
18450,340347157,170173581
18500,342194509,171097258
18550,344046858,172023432
18600,345904210,172952109
18650,347766562,173883286
18700,349633915,174816964
18750,351506263,175753137
18800,353383610,176691809
18850,355265964,177632988
18900,357153309,178576658
18950,359045657,179522831
19000,360943011,180471510
19050,362845358,181422682
19100,364752718,182376367
19150,366665060,183332534
19200,368582414,184291213
19250,370504758,185252382
19300,372432109,186216058
19350,374364458,187182232
19400,376301811,188150910
19450,378244164,189122088
19500,380191509,190095758
19550,382143861,191071935
19600,384101206,192050605
19650,386063564,193031788
19700,388030911,194015460
19750,390003261,195001635
19800,391980608,195990307
19850,393962963,196981487
19900,395950310,197975159
19950,397942660,198971334
20000,399940008,199970007
20050,401942363,200971187
20100,403949711,201974860
20150,405962059,202981033
20200,407979413,203989712
20250,410001760,205000884
20300,412029110,206014559
20350,414061460,207030734
20400,416098812,208049411
20450,418141157,209070581
20500,420188512,210094261
20550,422240858,211120432
20600,424298211,212149110
20650,426360561,213180285
20700,428427909,214213958
20750,430500260,215250134
20800,432577612,216288811
20850,434659964,217329988
20900,436747312,218373661
20950,438839662,219419836
21000,440937008,220468507
21050,443039360,221519684
21100,445146711,222573360
21150,447259058,223629532
21200,449376415,224688214
21250,451498764,225749388
21300,453626112,226813061
21350,455758461,227879235
21400,457895810,228947909
21450,460038157,230019081
21500,462185512,231092761
21550,464337861,232168935
21600,466495207,233247606
21650,468657557,234328781
21700,470824911,235412460
21750,472997262,236498636
21800,475174607,237587306
21850,477356959,238678483
21900,479544312,239772161
21950,481736662,240868336
22000,483934009,241967008
22050,486136360,243068184
22100,488343712,244171861
22150,490556063,245278037
22200,492773411,246386710
22250,494995760,247497884
22300,497223113,248611562
22350,499455461,249727735
22400,501692813,250846412
22450,503935164,251967588
22500,506182516,253091265
22550,508434862,254217436
22600,510692209,255346108
22650,512954563,256477287
22700,515221911,257610960
22750,517494262,258747136
22800,519771610,259885809
22850,522053964,261026988
22900,524341311,262170660
22950,526633665,263316839
23000,528931011,264465510
23050,531233358,265616682
23100,533540713,266770362
23150,535853061,267926535
23200,538170407,269085206
23250,540492761,270246385
23300,542820109,271410058
23350,545152462,272576236
23400,547489808,273744907
23450,549832162,274916086
23500,552179512,276089761
23550,554531860,277265934
23600,556889207,278444606
23650,559251558,279625782
23700,561618913,280809462
23750,563991268,281995642
23800,566368609,283184308
23850,568750959,284375483
23900,571138312,285569161
23950,573530660,286765334
24000,575928015,287964014
24050,578330360,289165184
24100,580737712,290368861
24150,583150066,291575040
24200,585567410,292783709
24250,587989762,293994886
24300,590417111,295208560
24350,592849456,296424730
24400,595286813,297643412
24450,597729163,298864587
24500,600176509,300088258
24550,602628861,301314435
24600,605086213,302543112
24650,607548554,303774278
24700,610015918,305007967
24750,612488262,306244136
24800,614965611,307482810
24850,617447956,308723980
24900,619935311,309967660
24950,622427659,311213833
